CS 1675 Recitation: Week 05
…
Generate the random posterior samples.

set.seed(712712)
my_post_samples <- generate_post_samples(laplace_result, N = 1e4, info_N05)

my_post_samples

## # A tibble: 10,000 x 3
##       mu  varphi sigma
##    <dbl>   <dbl> <dbl>
##  1  254. -2.39    2.18
##  2  253. -0.894   6.30
##  3  254. -0.0243 10.4 
##  4  255. -1.70    3.58
##  5  254. -2.37    2.21
##  6  247. -0.169   9.66
##  7  251. -0.254   9.24
##  8  253. -0.494   8.08
##  9  253. -0.0216 10.4 
## 10  256. -1.83    3.28
## # ... with 9,990 more rows
…
